[
  {
    "name": "Loup Mutant",
    "signe": "plus",
    "cost": 3,
    "atk": 2,
    "def": 4,
    "rarity": "rare",
    "type": "invocation",
    "subtype": "bête",
    "effect": "Au début de votre tour vous pouvez sacrifier cette carte pour invoquer un Loup ou Chien depuis votre deck."
  },
  {
    "name": "Exécution",
    "signe": "minus",
    "cost": 3,
    "rarity": "rare",
    "type": "sort",
    "subtype": "rapide",
    "effect": "Détruisez l'invocation ciblée."
  },
  {
    "name": "Viking à la hâche",
    "signe": "plus",
    "cost": 4,
    "atk": 4,
    "def": 4,
    "rarity": "rare",
    "type": "invocation",
    "subtype": "guerrier",
    "effect": "Irruption : Détruisez une invocation de force 2 ou moins."
  },
  {
    "name": "Croissance Accelérée",
    "signe": "plus",
    "cost": 2,
    "rarity": "rare",
    "type": "sort",
    "subtype": "rituel",
    "effect": "Gagnez 2 énergies."
  },
  {
    "name": "Assaut Groupé",
    "signe": "minus",
    "cost": 3,
    "rarity": "rare",
    "type": "sort",
    "subtype": "rapide",
    "effect": "Vos invocations gagnent +2/+2 jusqu'à la fin du tour."
  },
  {
    "name": "Loup Garou",
    "signe": "minus",
    "cost": 2,
    "atk": 4,
    "def": 4,
    "rarity": "rare",
    "type": "invocation",
    "subtype": "bête",
    "effect": "Saignement : Si une invocation adverse subit des dégâts du Loup Garou elle gagne -1/-0. Comme coût supplémentaire lorsque vous jouez cette carte, sacrifiez une invocation."
  },
  {
    "name": "Voyante de viscères",
    "signe": "plus",
    "cost": 1,
    "atk": 1,
    "def": 1,
    "rarity": "rare",
    "type": "invocation",
    "subtype": "mage",
    "effect": "Prescience 2"
  },
  {
    "name": "Douves",
    "signe": "minus",
    "cost": 3,
    "rarity": "epique",
    "type": "sort",
    "subtype": "persistant",
    "effect": "Durant le tour de votre advseraires, les invocations adverses ont -1/-0."
  },
  {
    "name": "Faille Exploitée",
    "signe": "plus",
    "cost": 1,
    "rarity": "rare",
    "type": "sort",
    "subtype": "rapide",
    "effect": "L'invocation ciblée gagne Toxicité jusqu'à la fin du tour."
  },
  {
    "name": "Frappe Incendiaire",
    "signe": "minus",
    "cost": 3,
    "rarity": "rare",
    "type": "sort",
    "subtype": "rituel",
    "effect": "Inflige 2 dégâts aux invocations adverses."
  },
  {
    "name": "Vision de Sorcier",
    "signe": "plus",
    "cost": 2,
    "rarity": "rare",
    "type": "sort",
    "subtype": "rituel",
    "effect": "Piochez une carte. Si vous contrôlez au moins un mage, piochez une carte supplementaire."
  },
  {
    "name": "Ogre Débile",
    "signe": "plus",
    "cost": 3,
    "atk": 5,
    "def": 4,
    "rarity": "rare",
    "type": "invocation",
    "subtype": "guerrier et mythe",
    "effect": "Chaque fois que cette invocation inflige des dégâts, elle vous inflige 2 points de dégâts."
  },
  {
    "name": "Liens Solides",
    "signe": "plus",
    "cost": 1,
    "rarity": "rare",
    "type": "sort",
    "subtype": "rituel",
    "effect": "L'invocation ciblée ne peut plus attaquer pendant les 3 prochains tours de son propriétaire."
  },
  {
    "name": "Contresort",
    "signe": "minus",
    "cost": 2,
    "rarity": "commune",
    "type": "sort",
    "subtype": "rapide",
    "effect": "Neutralisez le sort ciblé."
  },
  {
    "name": "Aspirateur de vie",
    "signe": "plus",
    "cost": 3,
    "atk": 3,
    "def": 3,
    "rarity": "rare",
    "type": "invocation",
    "subtype": "démon",
    "effect": "(+/-) Équilibré : détruisez une invocation adverse."
  },
  {
    "name": "Moine Sorcier",
    "signe": "minus",
    "cost": 2,
    "atk": 2,
    "def": 2,
    "rarity": "rare",
    "type": "invocation",
    "subtype": "mage",
    "effect": "Votre adversaire se défausse d'une carte au hasard. Équilibré: Votre adversaire vous montre sa main et vous choisissez la carte dont il se défausse."
  },
  {
    "name": "Prière",
    "signe": "plus",
    "cost": 3,
    "rarity": "rare",
    "type": "sort",
    "subtype": "rapide",
    "effect": "Renvoyez une invocation dans la main de son contrôleur. Équilibré : Renvoyez une entité de votre cimetière dans votre main."
  },
  {
    "name": "Commandant aux morts",
    "signe": "plus",
    "cost": 3,
    "atk": 3,
    "def": 3,
    "rarity": "rare",
    "type": "invocation",
    "subtype": "guerrier et mort",
    "effect": "Baroud d'honneur: envoyez les 3 cartes du dessus de votre deck au cimetière, vous pouvez invoquer un Mort qui devrait être ainsi mis au cimetière."
  },
  {
    "name": "Marchand de crânes",
    "signe": "plus",
    "cost": 3,
    "atk": 2,
    "def": 3,
    "rarity": "rare",
    "type": "invocation",
    "subtype": "démon",
    "effect": "Une fois par tour, pour -1 : exilez une invocation de votre cimetière pour piocher une carte."
  },
  {
    "name": "Cracheur de Feu",
    "signe": "plus",
    "cost": 3,
    "atk": 2,
    "def": 2,
    "rarity": "rare",
    "type": "invocation",
    "subtype": "guerrier",
    "effect": "Quand cette carte attaque, elle inflige 1 dégât à toutes les invocations adverses."
  },
  {
    "name": "Maître des fioles",
    "signe": "minus",
    "cost": 3,
    "atk": 3,
    "def": 3,
    "rarity": "epique",
    "type": "invocation",
    "subtype": "mage",
    "effect": "Aura: Les effets des cartes Fiole s'activent deux fois."
  },
  {
    "name": "Viking sans peur",
    "signe": "minus",
    "cost": 2,
    "atk": 2,
    "def": 1,
    "rarity": "rare",
    "type": "invocation",
    "subtype": "guerrier",
    "effect": "Le Viking sans peur est obligé d'attaquer à chacun de vos tours. Lorsqu'il déclare une attaque, cette carte gagne +1/+1."
  },
  {
    "name": "Trou de mémoire",
    "signe": "minus",
    "cost": 1,
    "rarity": "rare",
    "type": "sort",
    "subtype": "rapide",
    "effect": "L'invocation ciblée gagne Amnésie."
  },
  {
    "name": "Champion de l'arène",
    "signe": "minus",
    "cost": 2,
    "atk": 0,
    "def": 0,
    "rarity": "rare",
    "type": "invocation",
    "subtype": "guerrier",
    "effect": "Aura: Gagne +1/+1 pour chaque invocation sous votre contrôle."
  },
  {
    "name": "Collecte de fonds",
    "signe": "minus",
    "cost": 3,
    "rarity": "epique",
    "type": "sort",
    "subtype": "persistant",
    "effect": "Lorsque vous jouez votre premiere carte vermine du tour, piochez une carte."
  },
  {
    "name": "Paysan",
    "signe": "plus",
    "cost": 1,
    "atk": 1,
    "def": 1,
    "rarity": "vermine",
    "type": "invocation",
    "subtype": "humain",
    "effect": "Tant que vous controlez une autre humain , cette carte gagne +1/+1"
  },
  {
    "name": "Ver Hideux",
    "signe": "plus",
    "cost": 1,
    "atk": 0,
    "def": 2,
    "rarity": "vermine",
    "type": "invocation",
    "subtype": "bête",
    "effect": "Au début de votre tour, sacrifiez le Ver hideux:  l'adversaire se defausse d'une carte et vous en piochez une."
  },
  {
    "name": "Pieux croyant",
    "signe": "plus",
    "cost": 2,
    "atk": 2,
    "def": 2,
    "rarity": "vermine",
    "type": "invocation",
    "subtype": "humain",
    "effect": "Vampirisme"
  },
  {
    "name": "Rat Pestiféré",
    "signe": "minus",
    "cost": 1,
    "atk": 2,
    "def": 1,
    "rarity": "vermine",
    "type": "invocation",
    "subtype": "bête",
    "effect": "Baroud d'honneur: inflige 1 dégât à une cible."
  },
  {
    "name": "Nuisible",
    "signe": "plus",
    "cost": 1,
    "atk": 1,
    "def": 2,
    "rarity": "vermine",
    "type": "invocation",
    "subtype": "insecte",
    "effect": "Abnégation"
  },
  {
    "name": "Ecuyer",
    "signe": "minus",
    "cost": 1,
    "atk": 0,
    "def": 1,
    "rarity": "vermine",
    "type": "invocation",
    "subtype": "guerrier",
    "effect": "Aura: Gagne +1/+0 pour chaque guerrier sous votre contrôle."
  },
  {
    "name": "Sbire du temple",
    "signe": "plus",
    "cost": 2,
    "atk": 1,
    "def": 2,
    "rarity": "commune",
    "type": "invocation",
    "subtype": "mage",
    "effect": "Aura: Lorsque vous invoquer une invocation, vous pouvez changez le coût du Sbire du temple en +1, +2 ou +3, pour le décompte de l'Équilibre."
  },
  {
    "name": "Satyre des tombes",
    "signe": "plus",
    "cost": 1,
    "atk": 1,
    "def": 1,
    "rarity": "vermine",
    "type": "invocation",
    "subtype": "démon",
    "effect": "Lorsque cette carte arrive sur le terrain, envoyez les 2 cartes du dessus de votre deck au cimetiere."
  },
  {
    "name": "Variole",
    "signe": "plus",
    "cost": 2,
    "rarity": "vermine",
    "type": "sort",
    "subtype": "rituel",
    "effect": "Infligez 2 dégâts à une invocation. Si une invocation meurt quand cette carte est dans votre cimetière, renvoyez la dans votre main"
  },
  {
    "name": "Contrebandier malade",
    "signe": "minus",
    "cost": 1,
    "atk": 1,
    "def": 2,
    "rarity": "vermine",
    "type": "invocation",
    "subtype": "humain",
    "effect": "Baroud d'honneur: Piochez une carte."
  },
  {
    "name": "Chien Errant",
    "signe": "plus",
    "cost": 2,
    "atk": 2,
    "def": 1,
    "rarity": "commune",
    "type": "invocation",
    "subtype": "bête",
    "effect": "Irruption: piochez une carte."
  },
  {
    "name": "Fiole Bleue",
    "signe": "plus",
    "cost": 1,
    "rarity": "commune",
    "type": "sort",
    "subtype": "rapide",
    "effect": "L'invocation ciblée gagne +1/+1 et Immunité jusqu'a la fin du tour."
  },
  {
    "name": "Empalement",
    "signe": "plus",
    "cost": 2,
    "rarity": "commune",
    "type": "sort",
    "subtype": "rapide",
    "effect": "Inflige 3 dégâts à l'invocation ciblée."
  },
  {
    "name": "Soldat cuirassé",
    "signe": "plus",
    "cost": 2,
    "atk": 2,
    "def": 3,
    "rarity": "commune",
    "type": "invocation",
    "subtype": "guerrier",
    "effect": "Si vous contrôlez un guerrier, gagne Abnégation."
  },
  {
    "name": "Salamandre",
    "signe": "minus",
    "cost": 1,
    "atk": 1,
    "def": 1,
    "rarity": "commune",
    "type": "invocation",
    "subtype": "dragon",
    "effect": "Toxicité"
  },
  {
    "name": "Bucher",
    "signe": "plus",
    "cost": 1,
    "rarity": "commune",
    "type": "sort",
    "subtype": "rapide",
    "effect": "Detruisez un mage."
  },
  {
    "name": "Blocage de bouclier",
    "signe": "plus",
    "cost": 2,
    "rarity": "commune",
    "type": "sort",
    "subtype": "rapide",
    "effect": "Annulez une phase d'attaque."
  },
  {
    "name": "Faucons Jumeaux",
    "signe": "plus",
    "cost": 2,
    "atk": 1,
    "def": 1,
    "rarity": "commune",
    "type": "invocation",
    "subtype": "bête",
    "effect": "Élan. Invoque un jeton Oiseau 1/1 avec Élan."
  },
  {
    "name": "Cadavre Ambulant",
    "signe": "plus",
    "cost": 3,
    "atk": 3,
    "def": 3,
    "rarity": "commune",
    "type": "invocation",
    "subtype": "mort",
    "effect": "Tant que vous contrôlez un autre mort, gagne Toxicité."
  },
  {
    "name": "Dragon Apprivoisé",
    "signe": "plus",
    "cost": 3,
    "atk": 4,
    "def": 3,
    "rarity": "commune",
    "type": "invocation",
    "subtype": "dragon"
  },
  {
    "name": "Sort de rouille",
    "signe": "plus",
    "cost": 1,
    "rarity": "commune",
    "type": "sort",
    "subtype": "rapide",
    "effect": "Le guerrier ou la machine ciblé gagne Amnésie."
  },
  {
    "name": "Aspirant du temple",
    "signe": "plus",
    "cost": 1,
    "atk": 1,
    "def": 1,
    "rarity": "commune",
    "type": "invocation",
    "subtype": "mage",
    "effect": "(+/-) Equilibré : gagne +2/+2"
  },
  {
    "name": "Pilleur de tombes",
    "signe": "plus",
    "cost": 2,
    "atk": 1,
    "def": 2,
    "rarity": "commune",
    "type": "invocation",
    "subtype": "humain",
    "effect": "Irruption: Révélez les 3 cartes du dessus de votre deck, votre adversaire en choisi une. Ajoutez-la à votre main, envoyez le reste au cimetière."
  },
  {
    "name": "Lichen mortuaire",
    "signe": "plus",
    "cost": 3,
    "atk": 0,
    "def": 0,
    "rarity": "commune",
    "type": "invocation",
    "subtype": "plante",
    "effect": "Cette carte gagne +1/+1 pour chaque invocation dans votre cimetière."
  },
  {
    "name": "Fiole Rouge",
    "signe": "plus",
    "cost": 1,
    "rarity": "commune",
    "type": "sort",
    "subtype": "rapide",
    "effect": "L'invocation ciblee gagne +3/+0 jusqu'a la fin du tour."
  },
  {
    "name": "Fiole Noire",
    "signe": "minus",
    "cost": 1,
    "rarity": "commune",
    "type": "sort",
    "subtype": "rapide",
    "effect": "L'invocation ciblee gagne -3/-2 jusqu'a la fin du tour."
  },
  {
    "name": "Fée capricieuse",
    "signe": "plus",
    "cost": 2,
    "atk": 2,
    "def": 1,
    "rarity": "commune",
    "type": "invocation",
    "subtype": "mythe",
    "effect": "Irruption : Choisissez une carte dans la main de votre adversaire et placez-la au dessus de son deck."
  },
  {
    "name": "Révolte du peuple",
    "signe": "minus",
    "cost": 2,
    "rarity": "commune",
    "type": "sort",
    "subtype": "persistant",
    "effect": "Chaque fois que vous jouez une vermine, invoquez un jeton Fripouille 1/1 guerrier."
  },
  {
    "name": "Ad Vitam",
    "signe": "minus",
    "cost": 4,
    "rarity": "epique",
    "type": "sort",
    "subtype": "rituel",
    "effect": "Piochez 3 cartes et gagnez 3 points de vie."
  },
  {
    "name": "Jeune Dragon",
    "signe": "minus",
    "cost": 6,
    "atk": 5,
    "def": 5,
    "rarity": "epique",
    "type": "invocation",
    "subtype": "dragon",
    "effect": "A la fin de votre tour, infligez 5 dégâts à une invocation ciblée."
  },
  {
    "name": "Famine",
    "signe": "minus",
    "cost": 5,
    "rarity": "epique",
    "type": "sort",
    "subtype": "rituel",
    "effect": "Détruisez toutes les invocations."
  },
  {
    "name": "Chute du titan",
    "signe": "plus",
    "cost": 2,
    "rarity": "epique",
    "type": "sort",
    "subtype": "rapide",
    "effect": "Détruisez une invocation de force 5 ou plus."
  },
  {
    "name": "Brûlure Lancinante",
    "signe": "minus",
    "cost": 2,
    "rarity": "epique",
    "type": "sort",
    "subtype": "rituel",
    "effect": "Inflige 4 dégâts au joueur ciblé. Ce dernier se défausse d'une carte au hasard."
  },
  {
    "name": "Sorcière de laine",
    "signe": "plus",
    "cost": 4,
    "atk": 2,
    "def": 3,
    "rarity": "epique",
    "type": "invocation",
    "subtype": "mage",
    "effect": "Transformez une invocation en Mouton 1/1 Bête."
  },
  {
    "name": "Magicien de Téléportation",
    "signe": "minus",
    "cost": 3,
    "atk": 3,
    "def": 2,
    "rarity": "epique",
    "type": "invocation",
    "subtype": "mage",
    "effect": "Une fois par tour, ignorer les premiers dégâts infligés à cette invocation."
  },
  {
    "name": "Banniere Flamboyante",
    "signe": "minus",
    "cost": 4,
    "rarity": "epique",
    "type": "sort",
    "subtype": "persistant",
    "effect": "Vos guerriers gagnent +2/+2."
  },
  {
    "name": "Verger Verdoyant",
    "signe": "minus",
    "cost": 2,
    "atk": 0,
    "def": 7,
    "rarity": "epique",
    "type": "invocation",
    "subtype": "plante",
    "effect": "Inanimé. A la fin de votre tour, rend 3 points de vie à la cible de votre choix."
  },
  {
    "name": "Monolithe Majestueux",
    "signe": "plus",
    "cost": 4,
    "atk": 1,
    "def": 8,
    "rarity": "epique",
    "type": "invocation",
    "subtype": "artefact",
    "effect": "Inanimé. Une fois par tour vous pouvez annuler une attaque"
  },
  {
    "name": "Eruption",
    "signe": "minus",
    "cost": 4,
    "rarity": "epique",
    "type": "sort",
    "subtype": "persistant",
    "effect": "Les dragons que vous controlez gagnent +1/+1 et Élan."
  },
  {
    "name": "Vampire du Chateau",
    "signe": "plus",
    "cost": 4,
    "atk": 4,
    "def": 4,
    "rarity": "epique",
    "type": "invocation",
    "subtype": "mort",
    "effect": "Irruption: Le guerrier ciblé gagne -2/-2."
  },
  {
    "name": "Chasseur Bicephale",
    "signe": "minus",
    "cost": 3,
    "atk": 4,
    "def": 3,
    "rarity": "epique",
    "type": "invocation",
    "subtype": "guerrier",
    "effect": "Irruption: Détruisez une invocation de force supérieure ou égale à 5."
  },
  {
    "name": "Elixir d'immortalité",
    "signe": "minus",
    "cost": 2,
    "rarity": "epique",
    "type": "sort",
    "subtype": "rituel",
    "effect": "Piochez une carte . Équilibré : Piochez une carte pour chacune des invocations que vous contrôlez."
  },
  {
    "name": "Châtiment de l'Archipère",
    "signe": "minus",
    "cost": 4,
    "rarity": "epique",
    "type": "sort",
    "subtype": "persistant",
    "effect": "A la fin de votre tour, si votre terrain est à l'Équilibre, vous pouvez détruire une invocation adverse."
  },
  {
    "name": "Ange macabre",
    "signe": "minus",
    "cost": 4,
    "atk": 4,
    "def": 3,
    "rarity": "epique",
    "type": "invocation",
    "subtype": "mythe et mort",
    "effect": "Invoquer une invocation de coût absolu 4 depuis votre cimetière."
  },
  {
    "name": "Mausolé sinistre",
    "signe": "minus",
    "cost": 3,
    "rarity": "epique",
    "type": "sort",
    "subtype": "persistant",
    "effect": "Avant de piocher au début de votre tour, choisissez un des effets suivants : - Envoyez les 2 cartes du dessus de votre deck au cimetière. - Renvoyez 2 invocations depuis votre cimetière dans votre deck. - Renvoyez une invocation depuis votre cimetière à votre main, détruisez le Mausolé Sinistre."
  },
  {
    "name": "Zombification forcee",
    "signe": "minus",
    "cost": 5,
    "rarity": "epique",
    "type": "sort",
    "subtype": "rituel",
    "effect": "Prenez le contrôle d'une invocation adverse. Si vous avez exactement 7 entités dans votre cimetière, le coût de la Zombification forcée devient -3 et l'invocation ciblée gagne +3/+3."
  },
  {
    "name": "Phenix de poussière",
    "signe": "plus",
    "cost": 1,
    "atk": 1,
    "def": 1,
    "rarity": "epique",
    "type": "invocation",
    "subtype": "bête",
    "effect": "Elan. Baroud d'honneur : exilez cette carte. Vous povez invoquer cette carte depuis votre cimeitère pour -2. Si vous le faite elle est considérée comme 5/5 tant qu'elle reste sur le terrain."
  },
  {
    "name": "Abomination",
    "signe": "minus",
    "cost": 5,
    "rarity": "epique",
    "type": "sort",
    "subtype": "rituel",
    "effect": "Choisissez 3 invocations dans votre cimetière et retirez les du jeu et invoquez un jeton X/X Mort, X étant égal à la somme des coûts absolus de ces entités. Si vous avez exactement 7 entités dans votre cimetière, vous utilisez ces 7 entités pour l'effet de l'Abomination."
  },
  {
    "name": "Jongleur de cranes",
    "signe": "minus",
    "cost": 5,
    "atk": 2,
    "def": 3,
    "rarity": "epique",
    "type": "invocation",
    "subtype": "démon",
    "effect": "Irruption: Inflige un dégât pour chaque invocation dans votre cimetière, répartis comme vous le souhaitez entre les entités. Si vous avez exactement 7 entités dans votre cimetière, infligez 7 dégâts à chaque entité et joueurs adverses à la place."
  },
  {
    "name": "Animateur de joutes",
    "signe": "minus",
    "cost": 2,
    "atk": 1,
    "def": 5,
    "rarity": "epique",
    "type": "invocation",
    "subtype": "guerrier",
    "effect": "Vous pouvez imposer un combat à chaque phase d'attaque adverse."
  },
  {
    "name": "Intervention angélique",
    "signe": "minus",
    "cost": 2,
    "rarity": "epique",
    "type": "sort",
    "subtype": "rapide",
    "effect": "Annulez une phase d'attaque adverse et soignez-vous d'un nombre de points de vie égal à la somme de la force des invocations adverses."
  },
  {
    "name": "Inquisiteur",
    "signe": "minus",
    "cost": 3,
    "atk": 2,
    "def": 5,
    "rarity": "epique",
    "type": "invocation",
    "subtype": "mage",
    "effect": "Équilibré: Aura: Votre terrain est à l'Équilibre."
  },
  {
    "name": "Geôlier du Temple",
    "signe": "minus",
    "cost": 3,
    "atk": 1,
    "def": 1,
    "rarity": "epique",
    "type": "invocation",
    "subtype": "mage",
    "effect": "Équilibré: La prochaine invocation que vous jouez pendant ce tour est gratuite."
  },
  {
    "name": "Cerbère, Chien des Enfers",
    "signe": "minus",
    "cost": 5,
    "atk": 6,
    "def": 6,
    "rarity": "legendaire",
    "type": "invocation",
    "subtype": "mythe et bête",
    "effect": "Élan. Ne peut pas attaquer le joueur adverse le tour de son invocation."
  },
  {
    "name": "Gilbert, Pacificateur",
    "signe": "plus",
    "cost": 6,
    "atk": 5,
    "def": 6,
    "rarity": "legendaire",
    "type": "invocation",
    "subtype": "guerrier",
    "effect": "Abnégation. Tous les sorts adverses doivent prendre pour cible cette invocation."
  },
  {
    "name": "Minotaure, menace carnivore",
    "signe": "minus",
    "cost": 6,
    "atk": 6,
    "def": 6,
    "rarity": "legendaire",
    "type": "invocation",
    "subtype": "mythe et bête",
    "effect": "Lors de votre phase d'attaque, le Minotaure, Menace carnivore peut déclencher un combat contre chaque invocation adverse. Lorsqu'il détruit une entité, il se soigne d'un dégât."
  },
  {
    "name": "Val Gaal, Seigneur Liche",
    "signe": "plus",
    "cost": 5,
    "atk": 3,
    "def": 5,
    "rarity": "legendaire",
    "type": "invocation",
    "subtype": "mort et mage",
    "effect": "Les invocations adverses gagnent -1/-1 tant que cette carte est en jeu"
  },
  {
    "name": "Ecraser et Conquérir",
    "signe": "minus",
    "cost": 3,
    "rarity": "epique",
    "type": "sort",
    "subtype": "rituel",
    "effect": "Jusqu'a la fin du tour, chaque attaque detruit une energie adverse"
  },
  {
    "name": "Balty, Tueur de Rois",
    "signe": "minus",
    "cost": 2,
    "atk": 2,
    "def": 2,
    "rarity": "legendaire",
    "type": "invocation",
    "subtype": "guerrier",
    "effect": "Toxicité. Irruption: Détruit une carte légendaire."
  },
  {
    "name": "Bazuul, Archipere du temple",
    "signe": "plus",
    "cost": 6,
    "atk": 5,
    "def": 5,
    "rarity": "legendaire",
    "type": "invocation",
    "subtype": "mage et mythe",
    "effect": "(+/-) Immunité, Équilibré : gagne Aura: à la fin de votre tour, l'adversaire sacrifie des invocations sous son contrôle jusqu'à ce que son terrain soit à l'Équilibre."
  },
  {
    "name": "Cérémonie de Bazuul",
    "signe": "minus",
    "cost": 2,
    "rarity": "legendaire",
    "type": "sort",
    "subtype": "rituel",
    "effect": "Ajoutez une invocation Équilibré à votre main depuis votre deck. Équilibre : Ajoutez Bazuul, Archipère du temple depuis votre cimetière ou votre deck à votre main."
  },
  {
    "name": "Xin, aile de chairs",
    "signe": "plus",
    "cost": 7,
    "atk": 4,
    "def": 4,
    "rarity": "legendaire",
    "type": "invocation",
    "subtype": "démon",
    "effect": "Coûte une énergie de moins pour chaque invocation dans votre cimetière en continuant dans les négatifs. Irruption: Invoquer depuis votre cimetière une entité de même coût signé que Xin, Aile de Chair. Si ce dernier a été joué pour 0, invoquez une entité de votre choix depuis chaque cimetiere à la place."
  },
  {
    "name": "Le cycle du renouveau",
    "signe": "minus",
    "cost": 5,
    "rarity": "legendaire",
    "type": "sort",
    "subtype": "rituel",
    "effect": "Renvoyez toutes les cartes de votre cimetière dans votre deck et exilez Le cycle du renouveau. Pour chaque invocations ainsi renvoyées, vous gagnez 2 points de vie."
  },
  {
    "name": "Alice, Acrobate du Temps",
    "signe": "minus",
    "cost": 4,
    "atk": 3,
    "def": 4,
    "rarity": "legendaire",
    "type": "invocation",
    "subtype": "mage",
    "effect": "Aura: Le coût absolu de toutes vos cartes en main est réduit de 1."
  },
  {
    "name": "Rituel Impie",
    "signe": "minus",
    "cost": 1,
    "rarity": "legendaire",
    "type": "sort",
    "subtype": "rituel",
    "effect": "Perdez un point de vie, piochez une carte. Vous pouvez piocher une carte supplémentaire pour deux points de vie, puis pour trois points de vie, et ainsi de suite."
  },
  {
    "name": "Bayek le prophané",
    "signe": "plus",
    "cost": 4,
    "atk": 3,
    "def": 5,
    "rarity": "legendaire",
    "type": "invocation",
    "subtype": "guerrier et mort",
    "effect": "Abnégation, Baroud d'honneur : Cette carte devient une Malédiction du Pharaon. Mélangez la dans le deck."
  },
  {
    "name": "Malédiction du Pharaon",
    "signe": "minus",
    "cost": 1,
    "rarity": "legendaire",
    "type": "sort",
    "subtype": "rituel",
    "effect": "Cette carte ne peut être ajouté à votre deck que par l'effet de Bayek le Prophané. Toutes les invocations actuelles adverses seront détruites au début de votre prochain tour."
  },
  {
    "name": "Sountsou, stratège émérite",
    "signe": "minus",
    "cost": 4,
    "atk": 1,
    "def": 3,
    "rarity": "legendaire",
    "type": "invocation",
    "subtype": "guerrier",
    "effect": "Aura: Le terrain rentre en guerre. Vous choisissez l'issue de toutes les phases d'attaque, les invocations ayant Abnégation ne peuvent être ignorées."
  },
  {
    "name": "Guidric, Voix du peuple",
    "signe": "minus",
    "cost": 3,
    "atk": 1,
    "def": 1,
    "rarity": "legendaire",
    "type": "invocation",
    "subtype": "guerrier",
    "effect": "Abnégation. Aura: Gagne +1/+1 à chaque fois que vous invoquez une invocation."
  },
  {
    "name": "Siamois camouflé",
    "signe": "plus",
    "cost": 2,
    "atk": 2,
    "def": 2,
    "rarity": "commune",
    "type": "invocation",
    "subtype": "humain",
    "effect": "Baroud d'honneur: Invoque un jeton Siamois 1/1 humain."
  },
  {
    "name": "Theïla la vengeresse",
    "signe": "minus",
    "cost": 7,
    "atk": 4,
    "def": 4,
    "rarity": "legendaire",
    "type": "invocation",
    "subtype": "guerrier",
    "effect": "Irruption: Invoquer un nombre de votre choix d'invocations de coût absolu 1, depuis n'importe quel cimetière."
  },
  {
    "name": "Cizo, tempête d'énergie",
    "signe": "minus",
    "cost": 6,
    "atk": 3,
    "def": 5,
    "rarity": "legendaire",
    "type": "invocation",
    "subtype": "mage",
    "effect": "Irruption: Jusqu'à la fin du tour, les sorts -  peuvent être jouées comme des +. Leur coût ne peut excéder le nombre d'énergie dans votre réserve."
  },
  {
    "name": "Automate du Clan Pourpre",
    "signe": "plus",
    "cost": 1,
    "atk": 1,
    "def": 1,
    "rarity": "rare",
    "type": "invocation",
    "subtype": "machine",
    "effect": "Irruption: Vous gagnez 1 énergie."
  },
  {
    "name": "Jugement",
    "signe": "minus",
    "cost": 2,
    "rarity": "rare",
    "type": "sort",
    "subtype": "rapide",
    "effect": "Infligez 2 dégâts ou soignez de 4 une cible de votre choix."
  },
  {
    "name": "Comme une odeur de marais",
    "signe": "minus",
    "cost": 3,
    "rarity": "epique",
    "type": "sort",
    "subtype": "persistant",
    "effect": "Vos sorts ont Toxicité."
  },
  {
    "name": "Volée de flèches",
    "signe": "minus",
    "cost": 1,
    "rarity": "rare",
    "type": "sort",
    "subtype": "rituel",
    "effect": "Infligez 1 dégâts à toutes les invocations adverses."
  },
  {
    "name": "Momie nostalgique",
    "signe": "minus",
    "cost": 3,
    "atk": 3,
    "def": 3,
    "rarity": "rare",
    "type": "invocation",
    "subtype": "mort",
    "effect": "Si cette carte devrait être envoyée au cimetière depuis votre deck, invoquez-la à la place."
  },
  {
    "name": "Guerrier Dazingo",
    "signe": "plus",
    "cost": 4,
    "atk": 3,
    "def": 5,
    "rarity": "commune",
    "type": "invocation",
    "subtype": "guerrier",
    "effect": "Abnégation"
  },
  {
    "name": "Colosse fragile",
    "signe": "plus",
    "cost": 5,
    "atk": 8,
    "def": 8,
    "rarity": "rare",
    "type": "invocation",
    "subtype": "guerrier",
    "effect": "Si cette carte est la cible d'un sort, détruisez-la."
  },
  {
    "name": "Terreur des damnés",
    "signe": "minus",
    "cost": 8,
    "atk": 8,
    "def": 8,
    "rarity": "epique",
    "type": "invocation",
    "subtype": "démon",
    "effect": "Abnégation, Vampirisme."
  },
  {
    "name": "Maman Kangouroo",
    "signe": "plus",
    "cost": 4,
    "atk": 3,
    "def": 3,
    "rarity": "commune",
    "type": "invocation",
    "subtype": "bête",
    "effect": "Irruption: Invoquez un Petit Kangouroo 2/1 Bête."
  },
  {
    "name": "Pique-assiette",
    "signe": "plus",
    "cost": 1,
    "atk": 1,
    "def": 1,
    "rarity": "commune",
    "type": "invocation",
    "subtype": "bête",
    "effect": "Irruption: Révélez puis exilez une carte au hasard de la main de votre adversaire, lorsque le Pique-assiette quitte le terrain, renvoyez la carte exilée dans la main de son propriétaire."
  },
  {
    "name": "Albert le Roi bègue",
    "signe": "minus",
    "cost": 3,
    "atk": 3,
    "def": 4,
    "rarity": "legendaire",
    "type": "invocation",
    "subtype": "mage",
    "effect": "Aura: Vos effets Irruptions se résolvent deux fois."
  },
  {
    "name": "Magicien de bibliothèque",
    "signe": "plus",
    "cost": 3,
    "atk": 2,
    "def": 4,
    "rarity": "rare",
    "type": "invocation",
    "subtype": "mage",
    "effect": "Prescience 1. Aura: Le premier sort que vous lancez pendant votre tour a un coût absolu réduit de 1."
  },
  {
    "name": "Fléau des mages",
    "signe": "plus",
    "cost": 2,
    "atk": 2,
    "def": 1,
    "rarity": "commune",
    "type": "invocation",
    "subtype": "démon",
    "effect": "Irruption: Détruisez un sort persistant."
  },
  {
    "name": "Siège de la capitale",
    "signe": "minus",
    "cost": 4,
    "rarity": "rare",
    "type": "sort",
    "subtype": "persistant",
    "effect": "Chaque fois que l'adversaire pioche une carte, il envoie les 3 cartes du dessus de son deck au cimetière."
  },
  {
    "name": "Archimage impulsif",
    "signe": "minus",
    "cost": 6,
    "atk": 5,
    "def": 7,
    "rarity": "epique",
    "type": "invocation",
    "subtype": "mage",
    "effect": "Irruption: Exilez toutes les invocations adverses, elles retournent sur le terrain lorsque l'Archimage impulsif le quitte."
  },
  {
    "name": "Titan azur",
    "signe": "minus",
    "cost": 7,
    "atk": 7,
    "def": 7,
    "rarity": "rare",
    "type": "invocation",
    "subtype": "mythe",
    "effect": "Immunité. Lorsque cette invocation attaque, votre adversaire se défausse d'une carte au hasard: si c'est une entité, l'adversaire subit autant de dégâts que la force de cette entité; si c'est un sort, vous pouvez le jouer pendant ce tour en ignorant son coût."
  },
  {
    "name": "Coup de forain",
    "signe": "plus",
    "cost": 2,
    "rarity": "commune",
    "type": "sort",
    "subtype": "rituel",
    "effect": "Détruisez l'invocation de force 3 ou moins."
  },
  {
    "name": "Surpression mentale",
    "signe": "minus",
    "cost": 2,
    "rarity": "commune",
    "type": "sort",
    "subtype": "rapide",
    "effect": "Détruisez l'invocation de force 3 ou moins."
  },
  {
    "name": "Sacrifice noir",
    "signe": "minus",
    "cost": 2,
    "rarity": "epique",
    "type": "sort",
    "subtype": "rapide",
    "effect": "Sacrifiez une invocation puis détruisez une carte."
  },
  {
    "name": "Annulation",
    "signe": "minus",
    "cost": 4,
    "rarity": "rare",
    "type": "sort",
    "subtype": "rapide",
    "effect": "Détruisez une carte."
  },
  {
    "name": "Gardien ésotérique",
    "signe": "plus",
    "cost": 3,
    "atk": 2,
    "def": 4,
    "rarity": "epique",
    "type": "invocation",
    "subtype": "mythe et mage",
    "effect": "Aura: Tous vos sorts peuvent être lancés comme des rapides."
  },
  {
    "name": "Petit archiviste",
    "signe": "plus",
    "cost": 2,
    "atk": 2,
    "def": 1,
    "rarity": "rare",
    "type": "invocation",
    "subtype": "mage",
    "effect": "Baroud d'honneur: Vous pouvez récupérez un sort depuis votre cimetière."
  },
  {
    "name": "Lieutenant du Clan Pourpre",
    "signe": "minus",
    "cost": 3,
    "atk": 2,
    "def": 4,
    "rarity": "epique",
    "type": "invocation",
    "subtype": "guerrier",
    "effect": "Enchaînement, Saignement: Vous gagnez une énergie."
  },
  {
    "name": "Recyclage de parchemins",
    "signe": "minus",
    "cost": 3,
    "rarity": "epique",
    "type": "sort",
    "subtype": "rituel",
    "effect": "Renvoyez deux sorts depuis votre cimetière à votre main, excepté le Recyclage de parchemins."
  },
  {
    "name": "Fées de grenier",
    "signe": "plus",
    "cost": 1,
    "atk": 1,
    "def": 1,
    "rarity": "vermine",
    "type": "invocation",
    "subtype": "mythe",
    "effect": "Irruption : Défaussez-vous d'une carte, puis votre adversaire se défausse d'une carte au hasard."
  },
  {
    "name": "Magification",
    "signe": "minus",
    "cost": 1,
    "rarity": "rare",
    "type": "sort",
    "subtype": "persistant",
    "effect": "Les invocations en jeu sont considérées comme des mages en plus de leurs autres types."
  },
  {
    "name": "Chasse aux sorcières",
    "signe": "plus",
    "cost": 2,
    "rarity": "commune",
    "type": "sort",
    "subtype": "rituel",
    "effect": "Détruisez toutes les invocations de type mage en jeu."
  },
  {
    "name": "Trahison de Tybalt",
    "signe": "minus",
    "cost": 4,
    "rarity": "legendaire",
    "type": "sort",
    "subtype": "rituel",
    "effect": "Prenez le contrôle d'une invocation adverse jusqu'à la fin du tour. Elle gagne Vampirisme, Toxicité et l'Élan et ne peut pas être ciblée par les sorts ou effets de cartes jusqu'à la fin du tour."
  },
  {
    "name": "Tybalt le Tisseur de destin",
    "signe": "minus",
    "cost": 6,
    "atk": 6,
    "def": 6,
    "rarity": "legendaire",
    "type": "invocation",
    "subtype": "mythe et mage",
    "effect": "Irruption: Si vous ne contrôlez aucune autre invocation, prenez le contrôle des entités adverses jusqu'à la fin du tour, elles gagnent l'Élan."
  },
  {
    "name": "Manavore",
    "signe": "plus",
    "cost": 2,
    "atk": 1,
    "def": 2,
    "rarity": "commune",
    "type": "invocation",
    "subtype": "plante",
    "effect": "Aura: Gagne +1/+0 pour chaque énergie dans votre réserve."
  },
  {
    "name": "Pivert au bec d'airain",
    "signe": "minus",
    "cost": 2,
    "atk": 1,
    "def": 1,
    "rarity": "rare",
    "type": "invocation",
    "subtype": "bête",
    "effect": "Élan, Enchaînement"
  },
  {
    "name": "Fiole translucide",
    "signe": "plus",
    "cost": 1,
    "rarity": "commune",
    "type": "sort",
    "subtype": "rapide",
    "effect": "Jusqu'à la fin du tour, l'invocation ciblée gagne +2/+0 et ignore les entités avec Abnégation."
  },
  {
    "name": "Préparateur de fiole",
    "signe": "minus",
    "cost": 3,
    "atk": 3,
    "def": 3,
    "rarity": "rare",
    "type": "invocation",
    "subtype": "humain",
    "effect": "Irruption: Ajoutez un sort Fiole dans votre main depuis votre cimetière ou votre deck."
  },
  {
    "name": "Fiole verte",
    "signe": "plus",
    "cost": 1,
    "rarity": "commune",
    "type": "sort",
    "subtype": "rapide",
    "effect": "L'invocation ciblée gagne +0/+4 et Abnégation jusqu'à la fin du tour."
  },
  {
    "name": "Fourche du Clan Pourpre",
    "signe": "minus",
    "cost": "X",
    "rarity": "rare",
    "type": "sort",
    "subtype": "rituel",
    "effect": "Inflige X dégâts à deux invocations ciblées."
  },
  {
    "name": "Commandant du Clan Pourpre",
    "signe": "minus",
    "cost": 5,
    "atk": 3,
    "def": 4,
    "rarity": "epique",
    "type": "invocation",
    "subtype": "guerrier",
    "effect": "Irruption: Détruisez une invocatione adverse de force 3 ou moins. Vous gagnez autant d'énergie que la force de l'entité ainsi détruite."
  },
  {
    "name": "Repère Pourpre",
    "signe": "minus",
    "cost": 4,
    "rarity": "epique",
    "type": "sort",
    "subtype": "persistant",
    "effect": "Au début de votre tour, avant de piocher, Vous gagnez une énergie."
  },
  {
    "name": "Fiole de cupidité",
    "signe": "minus",
    "cost": 1,
    "rarity": "commune",
    "type": "sort",
    "subtype": "rituel",
    "effect": "L'invocation ciblée acquiert : A chaque fois que cette entité attaque, vous piochez une carte."
  },
  {
    "name": "Obsédé des substances",
    "signe": "minus",
    "cost": 2,
    "atk": 2,
    "def": 2,
    "rarity": "rare",
    "type": "invocation",
    "subtype": "humain",
    "effect": "Aura: Gagne +2/+1 lorsqu'il est ciblé par une Fiole."
  },
  {
    "name": "Fiole d'eau bénite",
    "signe": "minus",
    "cost": 2,
    "rarity": "rare",
    "type": "sort",
    "subtype": "rapide",
    "effect": "Confère Immunité à l'invocation ciblée."
  },
  {
    "name": "Barbe Pourpre, parrain du Clan",
    "signe": "minus",
    "cost": "3+X",
    "atk": 3,
    "def": 4,
    "rarity": "legendaire",
    "type": "invocation",
    "subtype": "guerrier",
    "effect": "Irruption: Invoquez des invocations depuis votre main, votre cimetière ou votre deck tant que la somme de leurs coûts absolus est inférieure ou égal à X."
  },
  {
    "name": "Porte-bouclier du Clan Pourpre",
    "signe": "plus",
    "cost": 2,
    "atk": 2,
    "def": 1,
    "rarity": "commune",
    "type": "invocation",
    "subtype": "guerrier",
    "effect": "Abnégation, Aura: Cette carte a +0/+1 pour chaque énergie dans votre réserve."
  },
  {
    "name": "Sorcier Pourpre",
    "signe": "plus",
    "cost": 3,
    "atk": 1,
    "def": 3,
    "rarity": "rare",
    "type": "invocation",
    "subtype": "mage",
    "effect": "Irruption: Ajoutez 2 énergies à votre réserve."
  },
  {
    "name": "Trouble-fête",
    "signe": "plus",
    "cost": 2,
    "atk": 1,
    "def": 1,
    "rarity": "rare",
    "type": "invocation",
    "subtype": "mythe",
    "effect": "Irruption : Renvoyez une invocation sur le terrain dans la main de son propriétaire"
  },
  {
    "name": "Crocodile putréfié",
    "signe": "minus",
    "cost": 3,
    "atk": 3,
    "def": 2,
    "rarity": "commune",
    "type": "invocation",
    "subtype": "bete et mort",
    "effect": "Toxicité, Bardoud d'honneur : inflige 3 dégâts à votre adversaire"
  },
  {
    "name": "Titan Pourpre",
    "signe": "minus",
    "cost": 8,
    "atk": 6,
    "def": 6,
    "rarity": "epique",
    "type": "invocation",
    "subtype": "mythe",
    "effect": "Élan, Emportement: Vous ajoutez X énergies à votre réserve, X étant le surplus de dégâts infligé par le Titan Pourpre."
  },
  {
    "name": "Alazi aux chaînes pourpres",
    "signe": "minus",
    "cost": 9,
    "atk": 15,
    "def": 15,
    "rarity": "legendaire",
    "type": "invocation",
    "subtype": "démon",
    "effect": "Le terrain rentre en Guerre. Lorsque Alazi aux chaînes pourpres attaque, le joueur qui le contrôle doit dépenser 5 énergies, autrement son adversaire en prend le contrôle. Si cette invocation devait être détruite par l'effet d'une carte, vous pouvez payer 3 points de vie à la place. Sacrifiez une entité : Cette entité gagne l'Élan jusqu'à la fin du tour."
  },
  {
    "name": "Rejeton du vide",
    "signe": "plus",
    "cost": 2,
    "atk": 1,
    "def": 4,
    "rarity": "commune",
    "type": "invocation",
    "subtype": "démon",
    "effect": "Aura: Les effets d'Irruption ne s'activent pas."
  },
  {
    "name": "Jet de flammes",
    "signe": "minus",
    "cost": 2,
    "rarity": "vermine",
    "type": "sort",
    "subtype": "rapide",
    "effect": "Inflige 3 dégâts à la cible."
  },
  {
    "name": "Chanter et boire",
    "signe": "plus",
    "cost": 1,
    "rarity": "vermine",
    "type": "sort",
    "subtype": "rapide",
    "effect": "Jusqu'à la fin du tour, le terrain est en Banquet."
  },
  {
    "name": "Sarcophage d'Anatot",
    "signe": "minus",
    "cost": 3,
    "rarity": "rare",
    "type": "sort",
    "subtype": "persistant",
    "effect": "Sacrifiez cette carte : mettez une carte de votre cimetière dans votre main."
  },
  {
    "name": "Purger le mal",
    "signe": "minus",
    "cost": 1,
    "rarity": "commune",
    "type": "sort",
    "subtype": "rituel",
    "effect": "Exilez jusqu'à 10 cartes au choix de n'importe quel cimetière."
  },
  {
    "name": "Grotesque cosmique",
    "signe": "plus",
    "cost": 4,
    "rarity": "rare",
    "type": "sort",
    "subtype": "persistant",
    "effect": "Les effets d'Équilibre ne s'activent pas."
  },
  {
    "name": "M'Semek Sa la victorieuse",
    "signe": "plus",
    "cost": 5,
    "atk": 5,
    "def": 5,
    "rarity": "legendaire",
    "type": "invocation",
    "subtype": "machine",
    "effect": "Irruption : piochez 1 puis mettez une carte de votre main au dessous de votre deck.  Barroud d'honneur : gagnez 5 points de vie puis renvoyez Semmek S'ha la victorieuse en 3 ème position au dessus de votre deck."
  },
  {
    "name": "Brute de sang Pourpre",
    "signe": "plus",
    "cost": 3,
    "atk": 2,
    "def": 3,
    "rarity": "commune",
    "type": "invocation",
    "subtype": "guerrier",
    "effect": "A la fin de votre tour, si votre réserve contient 4 énergies ou plus, piochez une carte."
  },
  {
    "name": "Lance d'Alazi, pourfendeuse de dieux",
    "signe": "minus",
    "cost": "1+X",
    "rarity": "legendaire",
    "type": "sort",
    "subtype": "rituel",
    "effect": "Infligez X dégâts à la cible advserse. Ne peut pas être annulée."
  },
  {
    "name": "Ouragan de sang Pourpre",
    "signe": "minus",
    "cost": "2+X",
    "rarity": "epique",
    "type": "sort",
    "subtype": "rituel",
    "effect": "Inflige 1+X à toutes les invocations sur le terrain de votre adversaire."
  },
  {
    "name": "Piratage",
    "signe": "minus",
    "cost": 3,
    "rarity": "commune",
    "type": "sort",
    "subtype": "rapide",
    "effect": "Neutralisez la carte ciblée."
  },
  {
    "name": "Abolition",
    "signe": "minus",
    "cost": 2,
    "rarity": "commune",
    "type": "sort",
    "subtype": "rapide",
    "effect": "Neutralisez l'invocation ciblée, vous prennez deux dégâts."
  },
  {
    "name": "Concentration",
    "signe": "minus",
    "cost": 2,
    "rarity": "rare",
    "type": "sort",
    "subtype": "rapide",
    "effect": "Neutralisez la carte ciblée. Vous ne gagnerez pas d'énergie ni ne piocherez de carte au début de votre prochain tour."
  },
  {
    "name": "Disciple d'Âgread",
    "signe": "minus",
    "cost": 5,
    "atk": 2,
    "def": 6,
    "rarity": "epique",
    "type": "invocation",
    "subtype": "mage",
    "effect": "Aura: Lorsque vous jouez un sort, piochez une carte."
  },
  {
    "name": "Âgread, ermite pustuleux",
    "signe": "plus",
    "cost": 4,
    "atk": 2,
    "def": 2,
    "rarity": "legendaire",
    "type": "invocation",
    "subtype": "mage",
    "effect": "Aura: Vos sorts infligent 2 dégâts supplémentaires."
  },
  {
    "name": "Peste prolifique",
    "signe": "minus",
    "cost": 2,
    "rarity": "epique",
    "type": "sort",
    "subtype": "persistant",
    "effect": "Ensorcelez une invocation, elle gagne: A la fin de votre tour, cette entité gagne -0/-2; Baroud d'honneur: Ensorcelez l'entité ciblée avec la Peste Prolifique.."
  },
  {
    "name": "Fiole calcinée",
    "signe": "minus",
    "cost": 1,
    "rarity": "commune",
    "type": "sort",
    "subtype": "rapide",
    "effect": "Inflige 2 dégâts à la cible."
  },
  {
    "name": "Tol Rahim, Roi des Nains de la Montagne Dorée"
  },
  {
    "name": "Croque-mort",
    "signe": "minus",
    "cost": 2,
    "atk": 1,
    "def": 3,
    "rarity": "rare",
    "type": "invocation",
    "subtype": "humain",
    "effect": "Une fois durant votre tour, envoyez le croque-mort au cimetière, invoquez une invocation mort depuis n’importe quel cimetière, elle gagne Elan . A la fin du tour, envoyez l’entité dans le cimetière et renvoyez le croque-mort sur le terrain"
  },
  {
    "name": "Recours de Gilbert",
    "signe": "plus",
    "cost": 4,
    "rarity": "legendaire",
    "type": "sort",
    "subtype": "rituel",
    "effect": "Cherchez une carte légendaire dans votre deck et ajoutez-la à votre main"
  },
  {
    "name": "Maîtrise du sorcier",
    "signe": "minus",
    "cost": 2,
    "rarity": "commune",
    "type": "sort",
    "subtype": "persistant",
    "effect": "Si vous deviez piocher une carte, à la place appliquez Prescience X, X étant le nombre de Maîtrise du Sorcier que vous contrôlez, puis piochez une carte."
  },
  {
    "name": "Extracteur de terre",
    "signe": "minus",
    "cost": 2,
    "atk": 1,
    "def": 4,
    "rarity": "commune",
    "type": "invocation",
    "subtype": "machine",
    "effect": "Aura :  Au début de votre tour, ajoutez 1 énergie à votre réserve."
  },
  {
    "name": "Clerc vaillant",
    "signe": "plus",
    "cost": 3,
    "atk": 2,
    "def": 3,
    "rarity": "rare",
    "type": "invocation",
    "subtype": "mage",
    "effect": "Aura : Si vous deviez gagner des points de vie, gagnez ce nombre plus 1 à la place. Vampirisme."
  },
  {
    "name": "Carcasse pourrissante",
    "signe": "minus",
    "cost": 2,
    "atk": 4,
    "def": 5,
    "rarity": "epique",
    "type": "invocation",
    "subtype": "mort",
    "effect": "Aura : A la fin de votre tour, vous inflige 1 point de dégâts ainsi qu'à vos autres invocations."
  },
  {
    "name": "Robot de soins",
    "signe": "plus",
    "cost": 1,
    "atk": 0,
    "def": 7,
    "rarity": "rare",
    "type": "invocation",
    "subtype": "machine",
    "effect": "Aura : A la fin de votre tour, rend 1 point de vie à vos invocations."
  },
  {
    "name": "Groth, le premier troll",
    "signe": "minus",
    "cost": 4,
    "atk": 4,
    "def": 2,
    "rarity": "legendaire",
    "type": "invocation",
    "subtype": "mythe",
    "effect": "Elan, saignement : vous pouvez payer 1 énergie pour chercher une carte d'invocation dans votre deck, la révéler et l'ajouter à votre main. Mélangez ensuite votre deck."
  },
  {
    "name": "Ange des petits soins",
    "signe": "plus",
    "cost": 3,
    "atk": 2,
    "def": 2,
    "rarity": "rare",
    "type": "invocation",
    "subtype": "mythe",
    "effect": "Vampirisme, Irruption : Gagnez 1 point de vie pour chaque invocation que vous contrôlez."
  },
  {
    "name": "Ange de Castalie",
    "signe": "minus",
    "cost": 5,
    "atk": 4,
    "def": 4,
    "rarity": "epique",
    "type": "invocation",
    "subtype": "mythe",
    "effect": "Vampirisme, Irruption :  Si vous avez 40 points de vie ou plus, révélez les 5 cartes du dessus de votre deck, invoquez les invocations sans payez leur coûts. Elles gagnent Elan, ajoutez les autres cartes à votre main."
  },
  {
    "name": "Temps de réflexion",
    "signe": "minus",
    "cost": 2,
    "rarity": "commune",
    "type": "sort",
    "subtype": "rituel",
    "effect": "Piochez deux cartes, puis mettez une carte de votre main en-dessous de votre deck."
  },
  {
    "name": "Fontaine grandissante",
    "signe": "plus",
    "cost": 1,
    "rarity": "rare",
    "type": "sort",
    "subtype": "persistant",
    "effect": "Au début de votre tour, gagnez 1 point de vie pour chaque invocation que vous contrôlez."
  },
  {
    "name": "Débarquement de l'espoir",
    "signe": "minus",
    "cost": 2,
    "rarity": "epique",
    "type": "sort",
    "subtype": "rituel",
    "effect": "Payez autant de points de vie que vous voulez au moment de lancer ce sort. Créez une invocation  4/4 ange  mythe avec Vampirisme par tranche de 8 points de vie dépensés."
  },
  {
    "name": "Extorsion vicieuse",
    "signe": "plus",
    "cost": 2,
    "rarity": "rare",
    "type": "sort",
    "subtype": "rituel",
    "effect": "Regardez la main du joueur ciblé. Choisissez-y une carte d'invocation. Ce joueur se défausse de cette carte."
  },
  {
    "name": "Ridiculiser",
    "signe": "minus",
    "cost": 5,
    "rarity": "rare",
    "type": "sort",
    "subtype": "rapide",
    "effect": "Neutralisez la carte ciblée. Piochez une carte ou gagnez 2 énergies."
  },
  {
    "name": "Urgences de guerre",
    "signe": "minus",
    "cost": 5,
    "rarity": "epique",
    "type": "sort",
    "subtype": "rituel",
    "effect": "Cette carte coûte 1 de moins par invocation sous votre contrôle. Si votre adversaire contrôle plus d'entités que vous, vous piochez un nombre de cartes égal à la différence."
  },
  {
    "name": "Laboureur de tombes",
    "signe": "plus",
    "cost": 1,
    "atk": 2,
    "def": 1,
    "rarity": "vermine",
    "type": "invocation",
    "subtype": "humain",
    "effect": "Irruption : Choisissez jusqu'à deux cartes d'un même cimetière excepté le Laboureur de tombes. Leur propriétaire les mélange dans son deck."
  },
  {
    "name": "Comète décisive ?",
    "signe": "minus",
    "cost": 3,
    "rarity": "legendaire",
    "type": "sort",
    "subtype": "rituel",
    "effect": "Lancez un dé à 6 faces. Détruisez un nombre d'invocations aléatoirement choisies égal au résultat."
  },
  {
    "name": "Dragon souffleur de feuilles",
    "signe": "plus",
    "cost": 2,
    "atk": 2,
    "def": 1,
    "rarity": "vermine",
    "type": "invocation",
    "subtype": "dragon",
    "effect": "Irruption : Inflige 1 point de dégât à n'importe quelle cible."
  },
  {
    "name": "Tour des dragons",
    "signe": "minus",
    "cost": 3,
    "rarity": "epique",
    "type": "sort",
    "subtype": "persistant",
    "effect": "A chaque fois que vous invoquez un dragon, inflige X points de dégâts à n'importe quelle cible, X étant le nombre de dragons que vous contrôlez."
  },
  {
    "name": "Nid de griffons",
    "signe": "minus",
    "cost": 2,
    "rarity": "rare",
    "type": "sort",
    "subtype": "persistant",
    "effect": "A la fin de votre tour, si vous avez gagné au moins 3 points de vie, créez une invocation 2/1 griffon bête."
  },
  {
    "name": "Discours du Grand archiviste",
    "signe": "minus",
    "cost": 3,
    "rarity": "commune",
    "type": "sort",
    "subtype": "rituel",
    "effect": "Prescience 1. Piochez 2 cartes."
  },
  {
    "name": "Feu grégeois",
    "signe": "minus",
    "cost": 4,
    "rarity": "commune",
    "type": "sort",
    "subtype": "rituel",
    "effect": "Infligez 5  dégâts à une cible."
  },
  {
    "name": "Premier Grimoire de Cizo",
    "signe": "minus",
    "cost": 8,
    "rarity": "legendaire",
    "type": "sort",
    "subtype": "rituel",
    "effect": "Infligez 8 dégâts à une cible. Vous gagnez 8 points de vie, puis piochez des cartes jusqu'à en avoir 8 en mains."
  },
  {
    "name": "L'Union fait la force",
    "signe": "minus",
    "cost": 2,
    "rarity": "commune",
    "type": "sort",
    "subtype": "persistant",
    "effect": "Choissez un type d'invocation. Les entités de ce type sous votre contrôle gagnent +1/+1."
  },
  {
    "name": "Demora, tempête volante",
    "signe": "plus",
    "cost": 4,
    "atk": 4,
    "def": 4,
    "rarity": "legendaire",
    "type": "invocation",
    "subtype": "dragon",
    "effect": "Quand Demora, tempête volante déclare une attaque, infligez 3 dégâts à une invocation ciblée."
  },
  {
    "name": "Tarmala, matriarche millénaire",
    "signe": "minus",
    "cost": 7,
    "atk": 4,
    "def": 7,
    "rarity": "legendaire",
    "type": "invocation",
    "subtype": "dragon",
    "effect": "A la fin de votre tour, mettez en jeu un dragon depûis votre deck."
  },
  {
    "name": "Apocalypse",
    "signe": "minus",
    "cost": 2,
    "rarity": "epique",
    "type": "sort",
    "subtype": "persistant",
    "effect": "Les invocations sur le terrain et dans le cimetière sont de types mort à la place de leur autres types."
  },
  {
    "name": "Pandémonium",
    "signe": "minus",
    "cost": 3,
    "rarity": "rare",
    "type": "sort",
    "subtype": "persistant",
    "effect": "vos invocations démons ont le Vampirisme et la Toxicité."
  },
  {
    "name": "Altama, Sainte Oracle du Temple",
    "signe": "minus",
    "cost": 6,
    "atk": 7,
    "def": 7,
    "rarity": "legendaire",
    "type": "invocation",
    "subtype": "mythe et mage",
    "effect": "Equilibré: révélez 6 cartes du dessus de votre deck, Vous pouvez invoquez des  d’invocations révélées par cet effet tant que l’équilibre est maintenu. Pour chaque entité invoquez, détruisez une carte adverse. Envoyez le reste des cartes révélez au cimetière. Cette carte ne peut pas être détruite tant que votre terrain est à l'équilibre."
  },
  {
    "name": "Prêtre incorruptible",
    "signe": "minus",
    "cost": 2,
    "atk": 2,
    "def": 1,
    "rarity": "rare",
    "type": "invocation",
    "subtype": "mage",
    "effect": "Aura : les morts ne peuvent pas attaquer. Si cette carte est un mort, détruisez-la."
  },
  {
    "name": "Hadès Roi des Enfers",
    "signe": "minus",
    "cost": 4,
    "atk": 1,
    "def": 1,
    "rarity": "legendaire",
    "type": "invocation",
    "subtype": "mythe",
    "effect": "Aura: Gagne +3/+3 pour chaque démon et mort sur votre terrain. Si cette carte est dans votre cimetière, vous pouvez l'invoquez durant votre tour en exilant un démon et un mort depuis votre main, terrain ou cimetière; si cette carte quitte le terrain une fois cet effet activé, exilez-la."
  },
  {
    "name": "Banquier avare",
    "signe": "plus",
    "cost": 2,
    "atk": 1,
    "def": 2,
    "rarity": "rare",
    "type": "invocation",
    "subtype": "humain",
    "effect": "Irruption: renvoyez 3 humains de votre cimetière à votre deck puis piochez une carte; si c'est un humain, pous pouvez la révélez pour piochez une carte supplémentaire."
  },
  {
    "name": "Berseker décapité",
    "signe": "minus",
    "cost": 3,
    "atk": 4,
    "def": 3,
    "rarity": "rare",
    "type": "invocation",
    "subtype": "mort",
    "effect": "Abnégation. Lorsque cette carte inflige des dégâts à l’adversaire, il met les 3 cartes du dessus de son deck au cimetière et perd 1 point de vie par invocation ainsi envoyée au cimetière"
  },
  {
    "name": "Maire belliqueux",
    "signe": "minus",
    "cost": 3,
    "atk": 3,
    "def": 4,
    "rarity": "epique",
    "type": "invocation",
    "subtype": "humain",
    "effect": "Lorsque cette carte attaque, toutes vos autres invocations gagne +1/+1 jusqu'à la fin du tour."
  },
  {
    "name": "Succube instable",
    "signe": "minus",
    "cost": 4,
    "atk": 5,
    "def": 5,
    "rarity": "rare",
    "type": "invocation",
    "subtype": "demon",
    "effect": "Irruption: révélez une  carte au hasard de la main de votre adversiare. Si c'est une invocation, invoquez la sous votre contrôle; dans le cas contraire, donnez le contrôle de la succube instable à l'adversaire."
  },
  {
    "name": "Ecureuil généreux",
    "signe": "minus",
    "cost": 2,
    "atk": 1,
    "def": 1,
    "rarity": "commune",
    "type": "invocation",
    "subtype": "bete",
    "effect": "Aura: Durant votre tour, vous pouvez défaussez une carte de votre main, vos bêtes gagnent +1/+1 jusqu'à la fin du tour."
  },
  {
    "name": "Trahison des espions",
    "signe": "minus",
    "cost": 2,
    "rarity": "rare",
    "type": "sort",
    "subtype": "rituel",
    "effect": "Choissisez une invocation sur votre terrain et une sur le terrain de votre adversaire, échangez leur contrôle."
  },
  {
    "name": "Le chiffre porte-bonheur est...",
    "signe": "minus",
    "cost": 5,
    "rarity": "rare",
    "type": "sort",
    "subtype": "persistant",
    "effect": "Lorsque cette carte arrive en jeu, désignez un coût signé de votre choix. Lorsque cette carte est en jeu, votre adversaire joue avec la carte du dessus de son deck révélée. Si la carte du dessus du deck de votre adversaire est une invocation du coût désigné, invoquez la sur votre terrain."
  },
  {
    "name": "Stratégie bancale",
    "signe": "plus",
    "cost": 2,
    "rarity": "rare",
    "type": "sort",
    "subtype": "rapide",
    "effect": "Annulez la phase d'attaque adverse. Les 2 joueurs subissent un montant de dégâts égal au nombre d'invocation sur le terrain de votre adversaire."
  },
  {
    "name": "Pluie rafraichissante",
    "signe": "plus",
    "cost": 1,
    "rarity": "commune",
    "type": "sort",
    "subtype": "persistant",
    "effect": "Toutes les invocations sur le terrain gagnent +1/+1."
  },
  {
    "name": "Forgeron du village",
    "signe": "minus",
    "cost": 1,
    "atk": 1,
    "def": 1,
    "rarity": "vermine",
    "type": "invocation",
    "subtype": "humain",
    "effect": "Irruption : L'invocation ciblée gagne +2+/0."
  },
  {
    "name": "Miroir déformant",
    "signe": "plus",
    "cost": 3,
    "rarity": "commune",
    "type": "sort",
    "subtype": "peristant",
    "effect": "Au début de votre tour, ajoutez 2 compteur coûts sur l'invocation ciblée. A n'importe quel moment de la partie, vous pouvez décider de retirer un nombre de compteurs coûts de votre choix d'une entité, celle-ci modifie son coût d'unnombre égal au nombre de compteur coût rétiré jusqu'à la fin du tour."
  },
  {
    "name": "Démembreur du cauchemar",
    "signe": "minus",
    "cost": 2,
    "atk": 2,
    "def": 3,
    "rarity": "rare",
    "type": "invocation",
    "subtype": "demon",
    "effect": "Abnégation. Irruption : sacrifiez une invocation, gagnez autant d'énergie que son coûts absolu en énergie."
  },
  {
    "name": "Lur, prêtre du soleil",
    "signe": "plus",
    "cost": 5,
    "atk": 1,
    "def": 3,
    "rarity": "legendaire",
    "type": "invocation",
    "subtype": "mage",
    "effect": "Irruption : gagnez 4 énergies Soleil, elles disparaissent à la fin du tour et ne peuvent servir qu'à jouer une invocation de coût absolu 5 ou plus"
  },
  {
    "name": "Garde royale",
    "signe": "plus",
    "cost": 4,
    "atk": 2,
    "def": 4,
    "rarity": "rare",
    "type": "invocation",
    "subtype": "guerrier",
    "effect": "Abnégation. Baroud d'honneur : gagnez 3 points de vie."
  },
  {
    "name": "Agassants lutins",
    "signe": "plus",
    "cost": 2,
    "atk": 2,
    "def": 1,
    "rarity": "rare",
    "type": "invocation",
    "subtype": "mythe",
    "effect": "Abnégation. Irruption : si vous controlez un autre mythe, vous pouvez détruire un persistant ciblé."
  },
  {
    "name": "Lancier au loup",
    "signe": "plus",
    "cost": 5,
    "atk": 3,
    "def": 2,
    "rarity": "commune",
    "type": "invocation",
    "subtype": "mythe",
    "effect": "Irruption : Invoque un jeton Loup 3/3 bête avec l'élan."
  },
  {
    "name": "Invasion de pestes",
    "signe": "minus",
    "cost": 2,
    "rarity": "vermine",
    "type": "sort",
    "subtype": "rituel",
    "effect": "Sacrifiez une invocation pour invoquez un nombre de jetons Pestes 1/1 mythes avec l'abnégation égal à sa force"
  },
  {
    "name": "Thania, sorcière sainte",
    "signe": "plus",
    "cost": 4,
    "atk": 5,
    "def": 4,
    "rarity": "legendaire",
    "type": "invocation",
    "subtype": "mage",
    "effect": "Sacrifiez une invocation : Thania gagne au choix l'élan, l'immunité, la toxicité ou le vampirisme jusqu'à la fin du tour."
  },
  {
    "name": "Bourreau funeste",
    "signe": "minus",
    "cost": 7,
    "atk": 7,
    "def": 7,
    "rarity": "epique",
    "type": "invocation",
    "subtype": "démon",
    "effect": "A la fin d'un tour, si vous avez perdu 7 points de vie ou plus durant ce tour, invoquez cette carte depuis votre main. Vampirisme."
  },
  {
    "name": "Vassal prétentieux",
    "signe": "plus",
    "cost": 6,
    "atk": 6,
    "def": 8,
    "rarity": "commune",
    "type": "invocation",
    "subtype": "guerrier",
    "effect": "Lorsque vous invoquez cette invocation, sacrifiez une entité sur votre terrain."
  },
  {
    "name": "Balruc, tonnerre de bronze",
    "signe": "plus",
    "cost": 5,
    "atk": 1,
    "def": 3,
    "rarity": "legendaire",
    "type": "invocation",
    "subtype": "nain",
    "effect": "Une fois durant le tour de n'importe quel joueur, vous pouvez défausser une invocation, détruisez une entité. Vous gagnez 2 énergies."
  },
  {
    "name": "Gourde d'eau fraiche",
    "signe": "plus",
    "cost": 0,
    "rarity": "rare",
    "type": "sort",
    "subtype": "rituel",
    "effect": "Les 2 joueurs gagnent 2 énergies."
  },
  {
    "name": "Armoiries familiales",
    "signe": "minus",
    "cost": 3,
    "rarity": "epique",
    "type": "sort",
    "subtype": "rituel",
    "effect": "Donnez le nom d'un guerrier légendaire. S'il est dans votre main, révélez le, son coût est divisé par 2, arrondie à l'entier inférieur. S'il n'est pas dans votre main, ajouter le à votre main depuis votre deck ou cimetière."
  },
  {
    "name": "Dompteur d'électricité",
    "signe": "plus",
    "cost": 5,
    "atk": 3,
    "def": 6,
    "rarity": "commune",
    "type": "invocation",
    "subtype": "mage",
    "effect": "Une fois durant votre tour vous pouvez payez 1 énergies, infligez un point de dégâts à toutes les invocations adverses; Vous pouvez aussi défausser une carte, cette effet peut alors être réalisé autant de fois que vous le souhaiter durant votre tour."
  },
  {
    "name": "Erudit millénaire",
    "signe": "minus",
    "cost": 7,
    "atk": 5,
    "def": 8,
    "rarity": "rare",
    "type": "invocation",
    "subtype": "mage",
    "effect": "Irruption : Allez chercher 2 sorts persistants dans votre deck et posez les sur votre terrain sans en payés le coûts. Les cartes jouées ainsi sont considérées comme ayant été jouées de la main en payant leur coût d'origine."
  },
  {
    "name": "Cellule de crise",
    "signe": "minus",
    "cost": 3,
    "rarity": "commune",
    "type": "sort",
    "subtype": "rapide",
    "effect": "Gagnez un nombre de points de vie égal à la somme des attaques des invocations sur le terrain, puis détruisez l'entité avec l'attaque la plus élevé sur chaque terrain."
  },
  {
    "name": "Singe lanceur de cacahuètes",
    "signe": "plus",
    "cost": 3,
    "atk": 1,
    "def": 2,
    "rarity": "vermine",
    "type": "invocation",
    "subtype": "bête",
    "effect": "Aura : Lorsqu'une bête que vous contrôlez attaque, infligez un point de dégât à une invocation adverse."
  },
  {
    "name": "Servant d'Alazzi",
    "signe": "plus",
    "cost": 3,
    "atk": 2,
    "def": 4,
    "rarity": "epique",
    "type": "invocation",
    "subtype": "humain",
    "effect": "Si cette carte a été sacrifié pour donner la célérité à Alazi aux chaînes pourpres, vous n'avez pas à payer d'énergies lorsqu'Alazzi attaque; Alazzi gagne le vampirisme."
  },
  {
    "name": "Grand-mère vendeuse de gateaux",
    "signe": "plus",
    "cost": 2,
    "atk": 0,
    "def": 5,
    "rarity": "vermine",
    "type": "invocation",
    "subtype": "humain",
    "effect": "A la fin de chachun de vos tours, le joueur qui contrôle l'invocation avec la force la plus basse, excepté Grand-mère vendeuse de gateaux , gagne 2 énergies. Grand-mère vendeuse de gateaux se soigne de 2 points de vie à la fin de chacun des tours de votre adversaire"
  },
  {
    "name": "Zèbre zombifié",
    "signe": "plus",
    "cost": 3,
    "atk": 3,
    "def": 1,
    "rarity": "commune",
    "type": "invocation",
    "subtype": "bete et mort",
    "effect": "Aura : les invocations adjacentes à cette carte gagnent +1/+1."
  },
  {
    "name": "Sulran, Seigneur nécromancien d'Altope",
    "signe": "minus",
    "cost": 8,
    "atk": 6,
    "def": 6,
    "rarity": "legendaire",
    "type": "invocation",
    "subtype": "mage",
    "effect": "Ne peut pas être neutralisé. Une fois durant chacun de vos tours, vous pouvez payer 5 points de vie : invoquez une invocation depuis n'importe qu'elle cimetière sur votre terrain, elle est traitée comme un mort en plus de ses autres types; si elle quitte le terrain, exilez la. Lorsque Sulran est envoyé au cimetière, exilez toutes les entités de chaque cimetière."
  },
  {
    "name": "Abeille tombée dans une fiole rouge",
    "signe": "plus",
    "cost": 2,
    "atk": 5,
    "def": 1,
    "rarity": "vermine",
    "type": "invocation",
    "subtype": "insecte",
    "effect": "Lorsque cette carte inflige des dégâts à un joueur, détruisez-la."
  },
  {
    "name": "Nid de frelons",
    "signe": "plus",
    "cost": 3,
    "atk": 1,
    "def": 3,
    "rarity": "commune",
    "type": "invocation",
    "subtype": "insece",
    "effect": "Baroud d'honneur: détruisez jusqu'à deux invocations sur le terrain"
  },
  {
    "name": "Tol Rahim, Roi des Nains de la Montagne Dorée",
    "signe": "minus",
    "cost": 4,
    "atk": 1,
    "def": 1,
    "rarity": "legendaire",
    "type": "invocation",
    "subtype": "nain",
    "effect": "Aura: Gagne +1/+1 pour chaque autre Nain sous votre contrôle et pour sorts d'équipement qui lui sont attachés. Lorsqu'une invocation équipée est détruite, attachez l'équipement, si cela est possible, à Tol Rahim plutôt que de le mélanger à votre deck."
  },
  {
    "name": "Aux armes, Citoyens !",
    "signe": "minus",
    "cost": 5,
    "rarity": "epique",
    "type": "sort",
    "subtype": "rituel",
    "effect": "Ajoutez depuis votre deck à votre main autant de sorts d'équipement que d'invocations sous votre contrôle."
  },
  {
    "name": "Epée courte d'assassin",
    "signe": "minus",
    "cost": 2,
    "atk": 1,
    "def": 0,
    "rarity": "epique",
    "type": "sort",
    "subtype": "invocation",
    "effect": "Arme légère. L'invocation équipée peut mener un combat supplémentaire par phase d'attaque."
  },
  {
    "name": "Dague des marais d'Üldura",
    "signe": "minus",
    "cost": 1,
    "atk": 0,
    "def": 0,
    "rarity": "commune",
    "type": "sort",
    "subtype": "invocation",
    "effect": "Arme légère. L'invocation équipée gagne toxicité."
  },
  {
    "name": "Armure de cuir paysanne",
    "signe": "plus",
    "cost": 1,
    "atk": 0,
    "def": 3,
    "rarity": "commune",
    "type": "sort",
    "subtype": "invocation",
    "effect": "Armure: Corps."
  },
  {
    "name": "Armure de mithril",
    "signe": "minus",
    "cost": 4,
    "atk": 0,
    "def": 7,
    "rarity": "rare",
    "type": "sort",
    "subtype": "invocation",
    "effect": "Armure: Corps. L'invocatione équipée gagne l'Immunité."
  },
  {
    "name": "Heaume de Tol Rahim",
    "signe": "minus",
    "rarity": "legendaire",
    "type": "sort",
    "subtype": "invocation",
    "effect": "Armure: Tête. Si l'invocation équipée devait être détruite, détruisez le Heaume de Tol Rahim à la place. L'entité équipée regagne tous ses points de vie."
  },
  {
    "name": "Mitre ointe de Bazuul",
    "signe": "plus",
    "cost": 4,
    "atk": 0,
    "def": 2,
    "rarity": "legendaire",
    "type": "sort",
    "subtype": "invocation",
    "effect": "Armure: Tête. Lorsque l'invocation équipée subit 2 points de dégâts ou plus, elle se soigne de 3 points de vie."
  },
  {
    "name": "Pervers des batailles",
    "signe": "minus",
    "cost": 2,
    "atk": 2,
    "def": 2,
    "rarity": "commune",
    "type": "invocation",
    "subtype": "humain",
    "effect": "Irruption: Détruisez tous les équipements de l'invocation ciblée."
  },
  {
    "name": "Mise à nue",
    "signe": "minus",
    "cost": 3,
    "rarity": "rare",
    "type": "sort",
    "subtype": "rituel",
    "effect": "Détruisez tous les équipements présents sur le terrain."
  },
  {
    "name": "Hix, premier des Nains connus",
    "signe": "plus",
    "cost": 2,
    "atk": 2,
    "def": 2,
    "rarity": "legendaire",
    "type": "invocation",
    "subtype": "nain",
    "effect": "Irruption: Mettez dans votre main tous les sorts d'équipement présents dans votre cimetière."
  },
  {
    "name": "Amoureux des lames",
    "signe": "plus",
    "cost": 4,
    "atk": 2,
    "def": 2,
    "rarity": "rare",
    "type": "invocation",
    "subtype": "nain",
    "effect": "Aura: Lorsque vous jouez un sort d'équipement, l'Amoureux des lames gagne +1/+1."
  },
  {
    "name": "Tunique d'invisibilité",
    "signe": "minus",
    "cost": 3,
    "rarity": "epique",
    "type": "sort",
    "subtype": "invocation",
    "effect": "Armure complète. L'invocation équipée ne peut pas être ciblée par les sorts et attaques adverses."
  },
  {
    "name": "Lame d'invisibilité",
    "signe": "minus",
    "cost": 2,
    "atk": 3,
    "def": 0,
    "rarity": "commune",
    "type": "sort",
    "subtype": "invocation",
    "effect": "Arme légère. L'invocation équipée attaque en ignorant l'Abnégation."
  },
  {
    "name": "Tesson de bouteille",
    "signe": "plus",
    "cost": 2,
    "atk": 1,
    "def": 0,
    "rarity": "vermine",
    "type": "sort",
    "subtype": "invocation",
    "effect": "Arme légère. Conditions d'équipement: Convient aux humains uniquement. A chaque fois que l'invocation équipée attaque une entité de force supérieure à elle, lancez un Pile ou Face avec votre adversaire. Si vous gagnez, détruisez l'entité adverse sans faire le calcul des dégâts, autrement résoudre le combat normalement."
  },
  {
    "name": "Forge de la Montagne Dorée",
    "signe": "minus",
    "cost": 4,
    "rarity": "epique",
    "type": "sort",
    "subtype": "persistant",
    "effect": "Au début de votre tour, si vous contrôlez au moins un nain, vous pouvez ajouter à votre main un sort d'équipement depuis votre deck."
  },
  {
    "name": "Arsenal de campagne",
    "signe": "minus",
    "cost": 4,
    "rarity": "rare",
    "type": "sort",
    "subtype": "rituel",
    "effect": "Cherchez dans votre deck autant de sorts d'équipement de rareté Commune ou Vermine que d'invocations sous votre contrôle, puis équipez les à vos entités comme vous le souhaitez."
  },
  {
    "name": "Massacre d'Enhélène",
    "signe": "minus",
    "cost": 3,
    "rarity": "legendaire",
    "type": "sort",
    "subtype": "rituel",
    "effect": "Choisissez un type d'invocation puis détruisez toutes les entités de ce type présentes sur le terrain."
  },
  {
    "name": "Iggrek, deuxième des Nains connus",
    "signe": "minus",
    "rarity": "legendaire",
    "type": "invocation",
    "subtype": "nain"
  },
  {
    "name": "Zaid, troisième des Nains connus",
    "signe": "minus",
    "rarity": "legendaire",
    "type": "invocation",
    "subtype": "nain"
  },
  {
    "name": "Hallebarde en béton",
    "signe": "plus",
    "cost": 2,
    "atk": 2,
    "def": 0,
    "rarity": "commune",
    "type": "sort",
    "subtype": "invocation",
    "effect": "Arme lourde. Confère +2/+0 à l'invocation équipée lorsque cette dernière attaque une entité avec Abnégation."
  },
  {
    "name": "Bouclier avec le bout plié, serti de bronze",
    "signe": "minus",
    "cost": 2,
    "atk": 1,
    "def": 3,
    "rarity": "commune",
    "type": "sort",
    "subtype": "invocation",
    "effect": "Arme lourde. L'invocation équipée gagne l'Abnégation."
  },
  {
    "name": "Fourche à deux dents",
    "signe": "minus",
    "cost": 1,
    "atk": 2,
    "def": 0,
    "rarity": "vermine",
    "type": "sort",
    "subtype": "invocation",
    "effect": "Arme lourde. L'invocation équipée gagne Baroud d'honneur: Infligez 2 points de dégâts à l'entité qui l'a détruite."
  },
  {
    "name": "Couteau suisse doré",
    "signe": "minus",
    "cost": 3,
    "atk": 1,
    "def": 1,
    "rarity": "rare",
    "type": "sort",
    "subtype": "invocation",
    "effect": "*Arme légère*. Irruption: Choisissez entre: l'invocation équipée gagne +2/+2 ou l'Élan ou piochez une carte."
  }
]
